<?xml version="1.0" encoding="utf-8"?>
<!DOCTYPE eagle SYSTEM "eagle.dtd">
<eagle version="9.4.2">
<drawing>
<settings>
<setting alwaysvectorfont="no"/>
<setting verticaltext="up"/>
</settings>
<grid distance="0.1" unitdist="mm" unit="mm" style="lines" multiple="1" display="yes" altdistance="5" altunitdist="mil" altunit="mil"/>
<layers>
<layer number="1" name="Top" color="4" fill="1" visible="yes" active="yes"/>
<layer number="2" name="Route2" color="16" fill="1" visible="no" active="yes"/>
<layer number="3" name="Route3" color="17" fill="1" visible="no" active="yes"/>
<layer number="4" name="Route4" color="18" fill="1" visible="no" active="yes"/>
<layer number="5" name="Route5" color="19" fill="1" visible="no" active="yes"/>
<layer number="6" name="Route6" color="25" fill="1" visible="yes" active="yes"/>
<layer number="7" name="Route7" color="26" fill="1" visible="no" active="yes"/>
<layer number="8" name="Route8" color="27" fill="1" visible="no" active="yes"/>
<layer number="9" name="Route9" color="28" fill="1" visible="no" active="yes"/>
<layer number="10" name="Route10" color="29" fill="1" visible="no" active="yes"/>
<layer number="11" name="Route11" color="30" fill="1" visible="no" active="yes"/>
<layer number="12" name="Route12" color="20" fill="1" visible="no" active="yes"/>
<layer number="13" name="Route13" color="21" fill="1" visible="no" active="yes"/>
<layer number="14" name="Route14" color="22" fill="1" visible="no" active="yes"/>
<layer number="15" name="Route15" color="23" fill="1" visible="no" active="yes"/>
<layer number="16" name="Bottom" color="1" fill="1" visible="yes" active="yes"/>
<layer number="17" name="Pads" color="2" fill="1" visible="yes" active="yes"/>
<layer number="18" name="Vias" color="2" fill="1" visible="yes" active="yes"/>
<layer number="19" name="Unrouted" color="6" fill="1" visible="yes" active="yes"/>
<layer number="20" name="Dimension" color="24" fill="1" visible="yes" active="yes"/>
<layer number="21" name="tPlace" color="7" fill="1" visible="yes" active="yes"/>
<layer number="22" name="bPlace" color="7" fill="1" visible="yes" active="yes"/>
<layer number="23" name="tOrigins" color="15" fill="1" visible="yes" active="yes"/>
<layer number="24" name="bOrigins" color="15" fill="1" visible="yes" active="yes"/>
<layer number="25" name="tNames" color="7" fill="1" visible="yes" active="yes"/>
<layer number="26" name="bNames" color="7" fill="1" visible="yes" active="yes"/>
<layer number="27" name="tValues" color="7" fill="1" visible="yes" active="yes"/>
<layer number="28" name="bValues" color="7" fill="1" visible="yes" active="yes"/>
<layer number="29" name="tStop" color="7" fill="3" visible="no" active="yes"/>
<layer number="30" name="bStop" color="7" fill="6" visible="no" active="yes"/>
<layer number="31" name="tCream" color="7" fill="4" visible="no" active="yes"/>
<layer number="32" name="bCream" color="7" fill="5" visible="no" active="yes"/>
<layer number="33" name="tFinish" color="6" fill="3" visible="no" active="yes"/>
<layer number="34" name="bFinish" color="6" fill="6" visible="no" active="yes"/>
<layer number="35" name="tGlue" color="7" fill="4" visible="no" active="yes"/>
<layer number="36" name="bGlue" color="7" fill="5" visible="no" active="yes"/>
<layer number="37" name="tTest" color="7" fill="1" visible="no" active="yes"/>
<layer number="38" name="bTest" color="7" fill="1" visible="no" active="yes"/>
<layer number="39" name="tKeepout" color="4" fill="11" visible="yes" active="yes"/>
<layer number="40" name="bKeepout" color="1" fill="11" visible="yes" active="yes"/>
<layer number="41" name="tRestrict" color="4" fill="10" visible="yes" active="yes"/>
<layer number="42" name="bRestrict" color="1" fill="10" visible="yes" active="yes"/>
<layer number="43" name="vRestrict" color="2" fill="10" visible="yes" active="yes"/>
<layer number="44" name="Drills" color="7" fill="1" visible="yes" active="yes"/>
<layer number="45" name="Holes" color="7" fill="1" visible="no" active="yes"/>
<layer number="46" name="Milling" color="3" fill="1" visible="yes" active="yes"/>
<layer number="47" name="Measures" color="7" fill="1" visible="no" active="yes"/>
<layer number="48" name="Document" color="7" fill="1" visible="yes" active="yes"/>
<layer number="49" name="Reference" color="7" fill="1" visible="yes" active="yes"/>
<layer number="51" name="tDocu" color="7" fill="1" visible="yes" active="yes"/>
<layer number="52" name="bDocu" color="7" fill="1" visible="yes" active="yes"/>
<layer number="88" name="SimResults" color="9" fill="1" visible="yes" active="yes"/>
<layer number="89" name="SimProbes" color="9" fill="1" visible="yes" active="yes"/>
<layer number="90" name="Modules" color="5" fill="1" visible="yes" active="yes"/>
<layer number="91" name="Nets" color="2" fill="1" visible="yes" active="yes"/>
<layer number="92" name="Busses" color="1" fill="1" visible="yes" active="yes"/>
<layer number="93" name="Pins" color="2" fill="1" visible="yes" active="yes"/>
<layer number="94" name="Symbols" color="4" fill="1" visible="yes" active="yes"/>
<layer number="95" name="Names" color="7" fill="1" visible="yes" active="yes"/>
<layer number="96" name="Values" color="7" fill="1" visible="yes" active="yes"/>
<layer number="97" name="Info" color="7" fill="1" visible="yes" active="yes"/>
<layer number="98" name="Guide" color="6" fill="1" visible="yes" active="yes"/>
</layers>
<library>
<packages>
<package name="TYPE-CF-6P-RAT-L6.8W">
<description>SMD, have 4 through holes(Shell)
Soldering pad enlarged for hand soldering</description>
<smd name="B5" x="0.5" y="0.3" dx="0.7" dy="1.6" layer="1"/>
<smd name="A5" x="-0.5" y="0.3" dx="0.7" dy="1.6" layer="1"/>
<smd name="A9" x="1.5" y="0.3" dx="0.7" dy="1.6" layer="1"/>
<smd name="B9" x="-1.5" y="0.3" dx="0.7" dy="1.6" layer="1"/>
<smd name="A12" x="2.7" y="0.3" dx="0.8" dy="1.6" layer="1"/>
<smd name="B12" x="-2.7" y="0.3" dx="0.8" dy="1.6" layer="1"/>
<pad name="SS0" x="-4.32" y="0" drill="0.01" diameter="1" shape="long" rot="R90"/>
<pad name="SS1" x="4.32" y="0" drill="0.01" diameter="1" shape="long" rot="R90"/>
<pad name="SS2" x="-4.32" y="-3.8" drill="0.01" diameter="1" shape="long" rot="R90"/>
<pad name="SS3" x="4.32" y="-3.8" drill="0.01" diameter="1" shape="long" rot="R90"/>
<circle x="-3.5" y="0.8" radius="0.22360625" width="0.127" layer="21"/>
<wire x1="-4.47" y1="-6.4" x2="4.47" y2="-6.4" width="0.1" layer="21"/>
<wire x1="-4.47" y1="-6.4" x2="-4.47" y2="-5" width="0.127" layer="21"/>
<wire x1="4.47" y1="-6.4" x2="4.47" y2="-5" width="0.127" layer="21"/>
<wire x1="-4.47" y1="-1.2" x2="-4.47" y2="-2.6" width="0.127" layer="21"/>
<wire x1="4.47" y1="-1.2" x2="4.47" y2="-2.6" width="0.127" layer="21"/>
<text x="-3" y="1.2" size="1.27" layer="25">&gt;NAME</text>
<text x="-3.6" y="-6.2" size="1.27" layer="27">&gt;VALUE</text>
<wire x1="-4.02" y1="0.5" x2="-4.62" y2="0.5" width="0.0254" layer="46" curve="180"/>
<wire x1="-4.02" y1="0.5" x2="-4.02" y2="-0.5" width="0.0254" layer="46"/>
<wire x1="-4.62" y1="0.5" x2="-4.62" y2="-0.5" width="0.0254" layer="46"/>
<wire x1="-4.62" y1="-0.5" x2="-4.02" y2="-0.5" width="0.0254" layer="46" curve="180"/>
<wire x1="-4.62" y1="-4.3" x2="-4.02" y2="-4.3" width="0.0254" layer="46" curve="180"/>
<wire x1="-4.02" y1="-3.3" x2="-4.62" y2="-3.3" width="0.0254" layer="46" curve="180"/>
<wire x1="-4.02" y1="-3.3" x2="-4.02" y2="-4.3" width="0.0254" layer="46"/>
<wire x1="-4.62" y1="-3.3" x2="-4.62" y2="-4.3" width="0.0254" layer="46"/>
<wire x1="4.62" y1="-3.3" x2="4.02" y2="-3.3" width="0.0254" layer="46" curve="180"/>
<wire x1="4.02" y1="-4.3" x2="4.62" y2="-4.3" width="0.0254" layer="46" curve="180"/>
<wire x1="4.02" y1="-3.3" x2="4.02" y2="-4.3" width="0.0254" layer="46"/>
<wire x1="4.62" y1="-3.3" x2="4.62" y2="-4.3" width="0.0254" layer="46"/>
<wire x1="4.62" y1="0.5" x2="4.02" y2="0.5" width="0.0254" layer="46" curve="180"/>
<wire x1="4.02" y1="-0.5" x2="4.62" y2="-0.5" width="0.0254" layer="46" curve="180"/>
<wire x1="4.62" y1="0.5" x2="4.62" y2="-0.5" width="0.0254" layer="46"/>
<wire x1="4.02" y1="0.5" x2="4.02" y2="-0.5" width="0.0254" layer="46"/>
</package>
<package name="TYPE-CF-6P-RAT-L6.8W_DIM">
<description>SMD, have 4 through holes(Shell)
Soldering pad enlarged for hand soldering</description>
<smd name="B5" x="0.5" y="0.3" dx="0.7" dy="1.6" layer="1"/>
<smd name="A5" x="-0.5" y="0.3" dx="0.7" dy="1.6" layer="1"/>
<smd name="A9" x="1.5" y="0.3" dx="0.7" dy="1.6" layer="1"/>
<smd name="B9" x="-1.5" y="0.3" dx="0.7" dy="1.6" layer="1"/>
<smd name="A12" x="2.7" y="0.3" dx="0.8" dy="1.6" layer="1"/>
<smd name="B12" x="-2.7" y="0.3" dx="0.8" dy="1.6" layer="1"/>
<pad name="SS0" x="-4.32" y="0" drill="0.01" diameter="1" shape="long" rot="R90"/>
<pad name="SS1" x="4.32" y="0" drill="0.01" diameter="1" shape="long" rot="R90"/>
<wire x1="-4.32" y1="0.5" x2="-4.32" y2="-0.5" width="0.6" layer="46"/>
<wire x1="4.32" y1="0.5" x2="4.32" y2="-0.5" width="0.6" layer="46"/>
<pad name="SS2" x="-4.32" y="-3.8" drill="0.01" diameter="1" shape="long" rot="R90"/>
<wire x1="-4.32" y1="-3.3" x2="-4.32" y2="-4.3" width="0.6" layer="46"/>
<pad name="SS3" x="4.32" y="-3.8" drill="0.01" diameter="1" shape="long" rot="R90"/>
<wire x1="4.32" y1="-3.3" x2="4.32" y2="-4.3" width="0.6" layer="46"/>
<circle x="-3.5" y="0.8" radius="0.22360625" width="0.127" layer="21"/>
<wire x1="-4.47" y1="-6.4" x2="4.47" y2="-6.4" width="0.1" layer="21"/>
<wire x1="-4.47" y1="-6.4" x2="-4.47" y2="-5" width="0.127" layer="21"/>
<wire x1="4.47" y1="-6.4" x2="4.47" y2="-5" width="0.127" layer="21"/>
<wire x1="-4.47" y1="-1.2" x2="-4.47" y2="-2.6" width="0.127" layer="21"/>
<wire x1="4.47" y1="-1.2" x2="4.47" y2="-2.6" width="0.127" layer="21"/>
<text x="-3" y="1.2" size="1.27" layer="25">&gt;NAME</text>
<text x="-3.6" y="-6.2" size="1.27" layer="27">&gt;VALUE</text>
<wire x1="-4.02" y1="0.5" x2="-4.62" y2="0.5" width="0.1016" layer="20" curve="180"/>
<wire x1="-4.02" y1="-0.5" x2="-4.62" y2="-0.5" width="0.1016" layer="20" curve="-180"/>
<wire x1="-4.62" y1="-0.5" x2="-4.62" y2="0.5" width="0.1016" layer="20"/>
<wire x1="-4.02" y1="0.5" x2="-4.02" y2="-0.5" width="0.1016" layer="20"/>
<wire x1="-4.02" y1="-3.3" x2="-4.62" y2="-3.3" width="0.1016" layer="20" curve="180"/>
<wire x1="-4.02" y1="-4.3" x2="-4.62" y2="-4.3" width="0.1016" layer="20" curve="-180"/>
<wire x1="-4.62" y1="-4.3" x2="-4.62" y2="-3.3" width="0.1016" layer="20"/>
<wire x1="-4.02" y1="-3.3" x2="-4.02" y2="-4.3" width="0.1016" layer="20"/>
<wire x1="4.62" y1="0.5" x2="4.02" y2="0.5" width="0.1016" layer="20" curve="180"/>
<wire x1="4.62" y1="-0.5" x2="4.02" y2="-0.5" width="0.1016" layer="20" curve="-180"/>
<wire x1="4.02" y1="-0.5" x2="4.02" y2="0.5" width="0.1016" layer="20"/>
<wire x1="4.62" y1="0.5" x2="4.62" y2="-0.5" width="0.1016" layer="20"/>
<wire x1="4.62" y1="-3.3" x2="4.02" y2="-3.3" width="0.1016" layer="20" curve="180"/>
<wire x1="4.62" y1="-4.3" x2="4.02" y2="-4.3" width="0.1016" layer="20" curve="-180"/>
<wire x1="4.02" y1="-4.3" x2="4.02" y2="-3.3" width="0.1016" layer="20"/>
<wire x1="4.62" y1="-3.3" x2="4.62" y2="-4.3" width="0.1016" layer="20"/>
</package>
</packages>
<symbols>
<symbol name="TYPE-CF-6P-RAT-L6.8W">
<description>The type-C 6Pin pwr only connector

Separated shell as you don't always want to connect it, just ignore them if you don't want to connect the shell</description>
<pin name="GNDB" x="-33.02" y="15.24" length="middle" direction="pwr"/>
<pin name="VBUSB" x="-33.02" y="10.16" length="middle"/>
<pin name="CC1" x="-33.02" y="5.08" length="middle"/>
<pin name="CC2" x="-33.02" y="0" length="middle"/>
<pin name="VBUSA" x="-33.02" y="-5.08" length="middle"/>
<pin name="GNDA" x="-33.02" y="-10.16" length="middle" direction="pwr"/>
<pin name="SHELL0" x="-2.54" y="10.16" length="middle" rot="R180"/>
<pin name="SHELL1" x="-2.54" y="5.08" length="middle" rot="R180"/>
<pin name="SHELL2" x="-2.54" y="0" length="middle" rot="R180"/>
<pin name="SHELL3" x="-2.54" y="-5.08" length="middle" rot="R180"/>
<wire x1="-27.94" y1="17.78" x2="-27.94" y2="-12.7" width="0.254" layer="94"/>
<wire x1="-27.94" y1="-12.7" x2="-7.62" y2="-12.7" width="0.254" layer="94"/>
<wire x1="-7.62" y1="-12.7" x2="-7.62" y2="17.78" width="0.254" layer="94"/>
<wire x1="-7.62" y1="17.78" x2="-27.94" y2="17.78" width="0.254" layer="94"/>
<text x="-22.86" y="17.78" size="1.778" layer="95">&gt;NAME</text>
<text x="-22.86" y="-15.24" size="1.778" layer="96">&gt;VALUE</text>
</symbol>
</symbols>
<devicesets>
<deviceset name="TYPE-CF-6P-RAT-L6.8W">
<description>The 6 Pin version of power connector TypeC</description>
<gates>
<gate name="G$1" symbol="TYPE-CF-6P-RAT-L6.8W" x="0" y="0"/>
</gates>
<devices>
<device name="USEMILLING" package="TYPE-CF-6P-RAT-L6.8W">
<connects>
<connect gate="G$1" pin="CC1" pad="A5"/>
<connect gate="G$1" pin="CC2" pad="B5"/>
<connect gate="G$1" pin="GNDA" pad="A12"/>
<connect gate="G$1" pin="GNDB" pad="B12"/>
<connect gate="G$1" pin="SHELL0" pad="SS0" route="any"/>
<connect gate="G$1" pin="SHELL1" pad="SS1"/>
<connect gate="G$1" pin="SHELL2" pad="SS2"/>
<connect gate="G$1" pin="SHELL3" pad="SS3"/>
<connect gate="G$1" pin="VBUSA" pad="A9"/>
<connect gate="G$1" pin="VBUSB" pad="B9"/>
</connects>
<technologies>
<technology name=""/>
</technologies>
</device>
<device name="USINGDIMENSION" package="TYPE-CF-6P-RAT-L6.8W_DIM">
<connects>
<connect gate="G$1" pin="CC1" pad="A5"/>
<connect gate="G$1" pin="CC2" pad="B5"/>
<connect gate="G$1" pin="GNDA" pad="A12"/>
<connect gate="G$1" pin="GNDB" pad="B12"/>
<connect gate="G$1" pin="SHELL0" pad="SS0"/>
<connect gate="G$1" pin="SHELL1" pad="SS1"/>
<connect gate="G$1" pin="SHELL2" pad="SS2"/>
<connect gate="G$1" pin="SHELL3" pad="SS3"/>
<connect gate="G$1" pin="VBUSA" pad="A9"/>
<connect gate="G$1" pin="VBUSB" pad="B9"/>
</connects>
<technologies>
<technology name=""/>
</technologies>
</device>
</devices>
</deviceset>
</devicesets>
</library>
</drawing>
</eagle>
