G04 MADE WITH FRITZING*
G04 WWW.FRITZING.ORG*
G04 DOUBLE SIDED*
G04 HOLES PLATED*
G04 CONTOUR ON CENTER OF CONTOUR VECTOR*
%ASAXBY*%
%FSLAX23Y23*%
%MOIN*%
%OFA0B0*%
%SFA1.0B1.0*%
%ADD10C,0.078000*%
%ADD11C,0.039370*%
%ADD12R,0.031945X0.058678*%
%ADD13R,0.027778X0.058678*%
%ADD14C,0.024000*%
%ADD15R,0.001000X0.001000*%
%LNCOPPER1*%
G90*
G70*
G54D10*
X81Y457D03*
X181Y457D03*
X281Y457D03*
X381Y457D03*
X481Y457D03*
G54D11*
X71Y330D03*
G54D12*
X183Y277D03*
G54D13*
X231Y277D03*
X270Y277D03*
X309Y277D03*
X349Y277D03*
G54D12*
X396Y277D03*
G54D14*
X459Y44D02*
X540Y77D01*
D02*
X57Y220D02*
X57Y61D01*
D02*
X57Y61D02*
X459Y44D01*
D02*
X540Y77D02*
X542Y302D01*
D02*
X542Y302D02*
X482Y350D01*
D02*
X307Y168D02*
X340Y256D01*
D02*
X208Y169D02*
X307Y168D01*
D02*
X356Y301D02*
X377Y370D01*
D02*
X377Y370D02*
X380Y427D01*
D02*
X105Y257D02*
X57Y220D01*
D02*
X482Y350D02*
X482Y427D01*
D02*
X226Y253D02*
X208Y169D01*
D02*
X305Y301D02*
X300Y334D01*
D02*
X300Y334D02*
X202Y436D01*
D02*
X171Y110D02*
X182Y253D01*
D02*
X389Y253D02*
X345Y109D01*
D02*
X345Y109D02*
X171Y110D01*
D02*
X186Y309D02*
X186Y301D01*
D02*
X90Y326D02*
X186Y309D01*
D02*
X269Y301D02*
X268Y310D01*
D02*
X268Y310D02*
X105Y439D01*
G54D15*
X115Y303D02*
X123Y303D01*
X456Y303D02*
X463Y303D01*
X112Y302D02*
X126Y302D01*
X452Y302D02*
X466Y302D01*
X110Y301D02*
X128Y301D01*
X450Y301D02*
X468Y301D01*
X108Y300D02*
X130Y300D01*
X448Y300D02*
X470Y300D01*
X107Y299D02*
X131Y299D01*
X447Y299D02*
X471Y299D01*
X106Y298D02*
X132Y298D01*
X446Y298D02*
X472Y298D01*
X105Y297D02*
X133Y297D01*
X445Y297D02*
X473Y297D01*
X104Y296D02*
X134Y296D01*
X444Y296D02*
X474Y296D01*
X103Y295D02*
X115Y295D01*
X123Y295D02*
X135Y295D01*
X443Y295D02*
X455Y295D01*
X463Y295D02*
X475Y295D01*
X103Y294D02*
X113Y294D01*
X125Y294D02*
X135Y294D01*
X443Y294D02*
X453Y294D01*
X465Y294D02*
X475Y294D01*
X102Y293D02*
X111Y293D01*
X127Y293D02*
X136Y293D01*
X442Y293D02*
X451Y293D01*
X467Y293D02*
X476Y293D01*
X102Y292D02*
X110Y292D01*
X128Y292D02*
X136Y292D01*
X442Y292D02*
X450Y292D01*
X468Y292D02*
X476Y292D01*
X101Y291D02*
X109Y291D01*
X129Y291D02*
X137Y291D01*
X441Y291D02*
X449Y291D01*
X469Y291D02*
X477Y291D01*
X101Y290D02*
X108Y290D01*
X130Y290D02*
X137Y290D01*
X441Y290D02*
X448Y290D01*
X470Y290D02*
X477Y290D01*
X101Y289D02*
X108Y289D01*
X130Y289D02*
X137Y289D01*
X441Y289D02*
X448Y289D01*
X470Y289D02*
X477Y289D01*
X100Y288D02*
X107Y288D01*
X131Y288D02*
X138Y288D01*
X440Y288D02*
X447Y288D01*
X471Y288D02*
X478Y288D01*
X100Y287D02*
X107Y287D01*
X131Y287D02*
X138Y287D01*
X440Y287D02*
X447Y287D01*
X471Y287D02*
X478Y287D01*
X100Y286D02*
X107Y286D01*
X131Y286D02*
X138Y286D01*
X440Y286D02*
X447Y286D01*
X471Y286D02*
X478Y286D01*
X100Y285D02*
X107Y285D01*
X131Y285D02*
X138Y285D01*
X440Y285D02*
X447Y285D01*
X471Y285D02*
X478Y285D01*
X100Y284D02*
X107Y284D01*
X131Y284D02*
X138Y284D01*
X440Y284D02*
X447Y284D01*
X471Y284D02*
X478Y284D01*
X100Y283D02*
X107Y283D01*
X131Y283D02*
X138Y283D01*
X440Y283D02*
X447Y283D01*
X471Y283D02*
X478Y283D01*
X100Y282D02*
X107Y282D01*
X131Y282D02*
X138Y282D01*
X440Y282D02*
X447Y282D01*
X471Y282D02*
X478Y282D01*
X100Y281D02*
X107Y281D01*
X131Y281D02*
X138Y281D01*
X440Y281D02*
X447Y281D01*
X471Y281D02*
X478Y281D01*
X100Y280D02*
X107Y280D01*
X131Y280D02*
X138Y280D01*
X440Y280D02*
X447Y280D01*
X471Y280D02*
X478Y280D01*
X100Y279D02*
X107Y279D01*
X131Y279D02*
X138Y279D01*
X440Y279D02*
X447Y279D01*
X471Y279D02*
X478Y279D01*
X100Y278D02*
X107Y278D01*
X131Y278D02*
X138Y278D01*
X440Y278D02*
X447Y278D01*
X471Y278D02*
X478Y278D01*
X100Y277D02*
X107Y277D01*
X131Y277D02*
X138Y277D01*
X440Y277D02*
X447Y277D01*
X471Y277D02*
X478Y277D01*
X100Y276D02*
X107Y276D01*
X131Y276D02*
X138Y276D01*
X440Y276D02*
X447Y276D01*
X471Y276D02*
X478Y276D01*
X100Y275D02*
X107Y275D01*
X131Y275D02*
X138Y275D01*
X440Y275D02*
X447Y275D01*
X471Y275D02*
X478Y275D01*
X100Y274D02*
X107Y274D01*
X131Y274D02*
X138Y274D01*
X440Y274D02*
X447Y274D01*
X471Y274D02*
X478Y274D01*
X100Y273D02*
X107Y273D01*
X131Y273D02*
X138Y273D01*
X440Y273D02*
X447Y273D01*
X471Y273D02*
X478Y273D01*
X100Y272D02*
X107Y272D01*
X131Y272D02*
X138Y272D01*
X440Y272D02*
X447Y272D01*
X471Y272D02*
X478Y272D01*
X100Y271D02*
X107Y271D01*
X131Y271D02*
X138Y271D01*
X440Y271D02*
X447Y271D01*
X471Y271D02*
X478Y271D01*
X100Y270D02*
X107Y270D01*
X131Y270D02*
X138Y270D01*
X440Y270D02*
X447Y270D01*
X471Y270D02*
X478Y270D01*
X100Y269D02*
X107Y269D01*
X131Y269D02*
X138Y269D01*
X440Y269D02*
X447Y269D01*
X471Y269D02*
X478Y269D01*
X100Y268D02*
X107Y268D01*
X131Y268D02*
X138Y268D01*
X440Y268D02*
X447Y268D01*
X471Y268D02*
X478Y268D01*
X100Y267D02*
X107Y267D01*
X131Y267D02*
X138Y267D01*
X440Y267D02*
X447Y267D01*
X471Y267D02*
X478Y267D01*
X100Y266D02*
X107Y266D01*
X131Y266D02*
X138Y266D01*
X440Y266D02*
X447Y266D01*
X471Y266D02*
X478Y266D01*
X100Y265D02*
X107Y265D01*
X131Y265D02*
X138Y265D01*
X440Y265D02*
X447Y265D01*
X471Y265D02*
X478Y265D01*
X100Y264D02*
X107Y264D01*
X131Y264D02*
X138Y264D01*
X440Y264D02*
X447Y264D01*
X471Y264D02*
X478Y264D01*
X100Y263D02*
X107Y263D01*
X131Y263D02*
X138Y263D01*
X440Y263D02*
X447Y263D01*
X471Y263D02*
X478Y263D01*
X100Y262D02*
X107Y262D01*
X131Y262D02*
X138Y262D01*
X440Y262D02*
X447Y262D01*
X471Y262D02*
X478Y262D01*
X100Y261D02*
X107Y261D01*
X131Y261D02*
X138Y261D01*
X440Y261D02*
X447Y261D01*
X471Y261D02*
X478Y261D01*
X100Y260D02*
X107Y260D01*
X131Y260D02*
X138Y260D01*
X440Y260D02*
X447Y260D01*
X471Y260D02*
X478Y260D01*
X100Y259D02*
X107Y259D01*
X131Y259D02*
X138Y259D01*
X440Y259D02*
X447Y259D01*
X471Y259D02*
X478Y259D01*
X100Y258D02*
X107Y258D01*
X131Y258D02*
X138Y258D01*
X440Y258D02*
X447Y258D01*
X471Y258D02*
X478Y258D01*
X100Y257D02*
X107Y257D01*
X131Y257D02*
X138Y257D01*
X440Y257D02*
X447Y257D01*
X471Y257D02*
X478Y257D01*
X100Y256D02*
X107Y256D01*
X131Y256D02*
X138Y256D01*
X440Y256D02*
X447Y256D01*
X471Y256D02*
X478Y256D01*
X100Y255D02*
X107Y255D01*
X131Y255D02*
X138Y255D01*
X440Y255D02*
X447Y255D01*
X471Y255D02*
X478Y255D01*
X100Y254D02*
X107Y254D01*
X131Y254D02*
X138Y254D01*
X440Y254D02*
X447Y254D01*
X471Y254D02*
X478Y254D01*
X100Y253D02*
X107Y253D01*
X131Y253D02*
X138Y253D01*
X440Y253D02*
X447Y253D01*
X471Y253D02*
X478Y253D01*
X100Y252D02*
X107Y252D01*
X131Y252D02*
X138Y252D01*
X440Y252D02*
X447Y252D01*
X471Y252D02*
X478Y252D01*
X100Y251D02*
X107Y251D01*
X131Y251D02*
X138Y251D01*
X440Y251D02*
X447Y251D01*
X471Y251D02*
X478Y251D01*
X100Y250D02*
X107Y250D01*
X131Y250D02*
X138Y250D01*
X440Y250D02*
X447Y250D01*
X471Y250D02*
X478Y250D01*
X100Y249D02*
X107Y249D01*
X131Y249D02*
X138Y249D01*
X440Y249D02*
X447Y249D01*
X471Y249D02*
X478Y249D01*
X100Y248D02*
X107Y248D01*
X131Y248D02*
X138Y248D01*
X440Y248D02*
X448Y248D01*
X471Y248D02*
X478Y248D01*
X101Y247D02*
X108Y247D01*
X130Y247D02*
X137Y247D01*
X441Y247D02*
X448Y247D01*
X470Y247D02*
X477Y247D01*
X101Y246D02*
X109Y246D01*
X130Y246D02*
X137Y246D01*
X441Y246D02*
X449Y246D01*
X470Y246D02*
X477Y246D01*
X101Y245D02*
X109Y245D01*
X129Y245D02*
X137Y245D01*
X441Y245D02*
X449Y245D01*
X469Y245D02*
X477Y245D01*
X102Y244D02*
X110Y244D01*
X128Y244D02*
X136Y244D01*
X442Y244D02*
X450Y244D01*
X468Y244D02*
X476Y244D01*
X102Y243D02*
X111Y243D01*
X127Y243D02*
X136Y243D01*
X442Y243D02*
X451Y243D01*
X467Y243D02*
X476Y243D01*
X103Y242D02*
X113Y242D01*
X125Y242D02*
X135Y242D01*
X443Y242D02*
X453Y242D01*
X465Y242D02*
X475Y242D01*
X103Y241D02*
X115Y241D01*
X123Y241D02*
X135Y241D01*
X444Y241D02*
X455Y241D01*
X463Y241D02*
X475Y241D01*
X104Y240D02*
X134Y240D01*
X444Y240D02*
X474Y240D01*
X105Y239D02*
X133Y239D01*
X445Y239D02*
X473Y239D01*
X106Y238D02*
X132Y238D01*
X446Y238D02*
X472Y238D01*
X107Y237D02*
X131Y237D01*
X447Y237D02*
X471Y237D01*
X109Y236D02*
X129Y236D01*
X449Y236D02*
X469Y236D01*
X110Y235D02*
X128Y235D01*
X450Y235D02*
X468Y235D01*
X113Y234D02*
X125Y234D01*
X453Y234D02*
X465Y234D01*
X116Y233D02*
X122Y233D01*
X456Y233D02*
X462Y233D01*
X115Y153D02*
X123Y153D01*
X455Y153D02*
X463Y153D01*
X112Y152D02*
X126Y152D01*
X452Y152D02*
X466Y152D01*
X110Y151D02*
X128Y151D01*
X450Y151D02*
X468Y151D01*
X108Y150D02*
X130Y150D01*
X448Y150D02*
X470Y150D01*
X107Y149D02*
X131Y149D01*
X447Y149D02*
X471Y149D01*
X106Y148D02*
X132Y148D01*
X446Y148D02*
X472Y148D01*
X105Y147D02*
X133Y147D01*
X445Y147D02*
X473Y147D01*
X104Y146D02*
X134Y146D01*
X444Y146D02*
X474Y146D01*
X103Y145D02*
X114Y145D01*
X124Y145D02*
X135Y145D01*
X443Y145D02*
X454Y145D01*
X464Y145D02*
X475Y145D01*
X103Y144D02*
X112Y144D01*
X126Y144D02*
X135Y144D01*
X443Y144D02*
X452Y144D01*
X466Y144D02*
X475Y144D01*
X102Y143D02*
X111Y143D01*
X127Y143D02*
X136Y143D01*
X442Y143D02*
X451Y143D01*
X467Y143D02*
X476Y143D01*
X102Y142D02*
X110Y142D01*
X128Y142D02*
X136Y142D01*
X442Y142D02*
X450Y142D01*
X468Y142D02*
X476Y142D01*
X101Y141D02*
X109Y141D01*
X129Y141D02*
X137Y141D01*
X441Y141D02*
X449Y141D01*
X469Y141D02*
X477Y141D01*
X101Y140D02*
X108Y140D01*
X130Y140D02*
X137Y140D01*
X441Y140D02*
X448Y140D01*
X470Y140D02*
X477Y140D01*
X101Y139D02*
X108Y139D01*
X130Y139D02*
X137Y139D01*
X441Y139D02*
X448Y139D01*
X470Y139D02*
X477Y139D01*
X100Y138D02*
X107Y138D01*
X131Y138D02*
X138Y138D01*
X440Y138D02*
X447Y138D01*
X471Y138D02*
X478Y138D01*
X100Y137D02*
X107Y137D01*
X131Y137D02*
X138Y137D01*
X440Y137D02*
X447Y137D01*
X471Y137D02*
X478Y137D01*
X100Y136D02*
X107Y136D01*
X131Y136D02*
X138Y136D01*
X440Y136D02*
X447Y136D01*
X471Y136D02*
X478Y136D01*
X100Y135D02*
X107Y135D01*
X131Y135D02*
X138Y135D01*
X440Y135D02*
X447Y135D01*
X471Y135D02*
X478Y135D01*
X100Y134D02*
X107Y134D01*
X131Y134D02*
X138Y134D01*
X440Y134D02*
X447Y134D01*
X471Y134D02*
X478Y134D01*
X100Y133D02*
X107Y133D01*
X131Y133D02*
X138Y133D01*
X440Y133D02*
X447Y133D01*
X471Y133D02*
X478Y133D01*
X100Y132D02*
X107Y132D01*
X131Y132D02*
X138Y132D01*
X440Y132D02*
X447Y132D01*
X471Y132D02*
X478Y132D01*
X100Y131D02*
X107Y131D01*
X131Y131D02*
X138Y131D01*
X440Y131D02*
X447Y131D01*
X471Y131D02*
X478Y131D01*
X100Y130D02*
X107Y130D01*
X131Y130D02*
X138Y130D01*
X440Y130D02*
X447Y130D01*
X471Y130D02*
X478Y130D01*
X100Y129D02*
X107Y129D01*
X131Y129D02*
X138Y129D01*
X440Y129D02*
X447Y129D01*
X471Y129D02*
X478Y129D01*
X100Y128D02*
X107Y128D01*
X131Y128D02*
X138Y128D01*
X440Y128D02*
X447Y128D01*
X471Y128D02*
X478Y128D01*
X100Y127D02*
X107Y127D01*
X131Y127D02*
X138Y127D01*
X440Y127D02*
X447Y127D01*
X471Y127D02*
X478Y127D01*
X100Y126D02*
X107Y126D01*
X131Y126D02*
X138Y126D01*
X440Y126D02*
X447Y126D01*
X471Y126D02*
X478Y126D01*
X100Y125D02*
X107Y125D01*
X131Y125D02*
X138Y125D01*
X440Y125D02*
X447Y125D01*
X471Y125D02*
X478Y125D01*
X100Y124D02*
X107Y124D01*
X131Y124D02*
X138Y124D01*
X440Y124D02*
X447Y124D01*
X471Y124D02*
X478Y124D01*
X100Y123D02*
X107Y123D01*
X131Y123D02*
X138Y123D01*
X440Y123D02*
X447Y123D01*
X471Y123D02*
X478Y123D01*
X100Y122D02*
X107Y122D01*
X131Y122D02*
X138Y122D01*
X440Y122D02*
X447Y122D01*
X471Y122D02*
X478Y122D01*
X100Y121D02*
X107Y121D01*
X131Y121D02*
X138Y121D01*
X440Y121D02*
X447Y121D01*
X471Y121D02*
X478Y121D01*
X100Y120D02*
X107Y120D01*
X131Y120D02*
X138Y120D01*
X440Y120D02*
X447Y120D01*
X471Y120D02*
X478Y120D01*
X100Y119D02*
X107Y119D01*
X131Y119D02*
X138Y119D01*
X440Y119D02*
X447Y119D01*
X471Y119D02*
X478Y119D01*
X100Y118D02*
X107Y118D01*
X131Y118D02*
X138Y118D01*
X440Y118D02*
X447Y118D01*
X471Y118D02*
X478Y118D01*
X100Y117D02*
X107Y117D01*
X131Y117D02*
X138Y117D01*
X440Y117D02*
X447Y117D01*
X471Y117D02*
X478Y117D01*
X100Y116D02*
X107Y116D01*
X131Y116D02*
X138Y116D01*
X440Y116D02*
X447Y116D01*
X471Y116D02*
X478Y116D01*
X100Y115D02*
X107Y115D01*
X131Y115D02*
X138Y115D01*
X440Y115D02*
X447Y115D01*
X471Y115D02*
X478Y115D01*
X100Y114D02*
X107Y114D01*
X131Y114D02*
X138Y114D01*
X440Y114D02*
X447Y114D01*
X471Y114D02*
X478Y114D01*
X100Y113D02*
X107Y113D01*
X131Y113D02*
X138Y113D01*
X440Y113D02*
X447Y113D01*
X471Y113D02*
X478Y113D01*
X100Y112D02*
X107Y112D01*
X131Y112D02*
X138Y112D01*
X440Y112D02*
X447Y112D01*
X471Y112D02*
X478Y112D01*
X100Y111D02*
X107Y111D01*
X131Y111D02*
X138Y111D01*
X440Y111D02*
X447Y111D01*
X471Y111D02*
X478Y111D01*
X100Y110D02*
X107Y110D01*
X131Y110D02*
X138Y110D01*
X440Y110D02*
X447Y110D01*
X471Y110D02*
X478Y110D01*
X100Y109D02*
X107Y109D01*
X131Y109D02*
X138Y109D01*
X440Y109D02*
X447Y109D01*
X471Y109D02*
X478Y109D01*
X100Y108D02*
X107Y108D01*
X131Y108D02*
X138Y108D01*
X440Y108D02*
X447Y108D01*
X471Y108D02*
X478Y108D01*
X100Y107D02*
X107Y107D01*
X131Y107D02*
X138Y107D01*
X440Y107D02*
X447Y107D01*
X471Y107D02*
X478Y107D01*
X100Y106D02*
X107Y106D01*
X131Y106D02*
X138Y106D01*
X440Y106D02*
X447Y106D01*
X471Y106D02*
X478Y106D01*
X100Y105D02*
X107Y105D01*
X131Y105D02*
X138Y105D01*
X440Y105D02*
X447Y105D01*
X471Y105D02*
X478Y105D01*
X100Y104D02*
X107Y104D01*
X131Y104D02*
X138Y104D01*
X440Y104D02*
X447Y104D01*
X471Y104D02*
X478Y104D01*
X100Y103D02*
X107Y103D01*
X131Y103D02*
X138Y103D01*
X440Y103D02*
X447Y103D01*
X471Y103D02*
X478Y103D01*
X100Y102D02*
X107Y102D01*
X131Y102D02*
X138Y102D01*
X440Y102D02*
X447Y102D01*
X471Y102D02*
X478Y102D01*
X100Y101D02*
X107Y101D01*
X131Y101D02*
X138Y101D01*
X440Y101D02*
X447Y101D01*
X471Y101D02*
X478Y101D01*
X100Y100D02*
X107Y100D01*
X131Y100D02*
X138Y100D01*
X440Y100D02*
X447Y100D01*
X471Y100D02*
X478Y100D01*
X100Y99D02*
X107Y99D01*
X131Y99D02*
X138Y99D01*
X440Y99D02*
X447Y99D01*
X471Y99D02*
X478Y99D01*
X100Y98D02*
X108Y98D01*
X130Y98D02*
X138Y98D01*
X440Y98D02*
X448Y98D01*
X471Y98D02*
X478Y98D01*
X101Y97D02*
X108Y97D01*
X130Y97D02*
X137Y97D01*
X441Y97D02*
X448Y97D01*
X470Y97D02*
X477Y97D01*
X101Y96D02*
X109Y96D01*
X129Y96D02*
X137Y96D01*
X441Y96D02*
X449Y96D01*
X469Y96D02*
X477Y96D01*
X101Y95D02*
X109Y95D01*
X129Y95D02*
X137Y95D01*
X441Y95D02*
X449Y95D01*
X469Y95D02*
X477Y95D01*
X102Y94D02*
X110Y94D01*
X128Y94D02*
X136Y94D01*
X442Y94D02*
X450Y94D01*
X468Y94D02*
X476Y94D01*
X102Y93D02*
X111Y93D01*
X126Y93D02*
X136Y93D01*
X442Y93D02*
X452Y93D01*
X467Y93D02*
X476Y93D01*
X103Y92D02*
X113Y92D01*
X125Y92D02*
X135Y92D01*
X443Y92D02*
X453Y92D01*
X465Y92D02*
X475Y92D01*
X104Y91D02*
X116Y91D01*
X122Y91D02*
X134Y91D01*
X444Y91D02*
X456Y91D01*
X462Y91D02*
X474Y91D01*
X104Y90D02*
X134Y90D01*
X444Y90D02*
X474Y90D01*
X105Y89D02*
X133Y89D01*
X445Y89D02*
X473Y89D01*
X106Y88D02*
X132Y88D01*
X446Y88D02*
X472Y88D01*
X108Y87D02*
X130Y87D01*
X448Y87D02*
X471Y87D01*
X109Y86D02*
X129Y86D01*
X449Y86D02*
X469Y86D01*
X111Y85D02*
X127Y85D01*
X451Y85D02*
X467Y85D01*
X113Y84D02*
X125Y84D01*
X453Y84D02*
X465Y84D01*
X117Y83D02*
X121Y83D01*
X457Y83D02*
X461Y83D01*
D02*
G04 End of Copper1*
M02*