<svg id="Layer_1" data-name="Layer 1" xmlns="http://www.w3.org/2000/svg" width="10.408mm" height="18.098mm" viewBox="0 0 29.502 51.301">
  <title>USBCSch_ExportAI</title>
  <g id="schematic">
    <rect id="rect4764" x="7.575" y="0.45" width="14.401" height="50.401" stroke-width="0.9" stroke="#000" stroke-linecap="round" stroke-linejoin="round" fill="#fff"/>
    <g id="pins">
      <line id="connector3pin" x1="0.375" y1="4.051" x2="7.575" y2="4.051" fill="none" stroke="#787878" stroke-linecap="round" stroke-width="0.75"/>
      <line id="connector2pin" x1="0.375" y1="11.251" x2="7.575" y2="11.251" fill="none" stroke="#787878" stroke-linecap="round" stroke-width="0.75"/>
      <line id="connector4pin" x1="0.375" y1="18.45" x2="7.575" y2="18.45" fill="none" stroke="#787878" stroke-linecap="round" stroke-width="0.75"/>
      <line id="connector5pin" x1="0.375" y1="25.65" x2="7.575" y2="25.65" fill="none" stroke="#787878" stroke-linecap="round" stroke-width="0.75"/>
      <line id="line4911" x1="0.375" y1="32.853" x2="7.575" y2="32.853" fill="none" stroke="#787878" stroke-linecap="round" stroke-width="0.75"/>
      <line id="line4913" x1="0.375" y1="40.051" x2="7.575" y2="40.051" fill="none" stroke="#787878" stroke-linecap="round" stroke-width="0.75"/>
      <line id="line4915" x1="21.927" y1="18.45" x2="29.127" y2="18.45" fill="none" stroke="#787878" stroke-linecap="round" stroke-width="0.75"/>
      <line id="line4915-2" data-name="line4915" x1="21.927" y1="25.222" x2="29.127" y2="25.222" fill="none" stroke="#787878" stroke-linecap="round" stroke-width="0.75"/>
      <line id="line4915-3" data-name="line4915" x1="21.927" y1="32.37" x2="29.127" y2="32.37" fill="none" stroke="#787878" stroke-linecap="round" stroke-width="0.75"/>
      <line id="line4915-4" data-name="line4915" x1="21.927" y1="39.654" x2="29.127" y2="39.654" fill="none" stroke="#787878" stroke-linecap="round" stroke-width="0.75"/>
    </g>
    <g id="pin_labels" data-name="pin labels" style="isolation: isolate">
      <text transform="translate(21.084 38.732)" font-size="3" fill="#787878" font-family="ArialMT, Arial" style="isolation: isolate">Shell3</text>
      <text transform="translate(21.084 31.448)" font-size="3" fill="#787878" font-family="ArialMT, Arial" style="isolation: isolate">Shell2</text>
      <text transform="translate(21.084 24.3)" font-size="3" fill="#787878" font-family="ArialMT, Arial" style="isolation: isolate">Shell1</text>
      <text transform="translate(21.084 17.528)" font-size="3" fill="#787878" font-family="ArialMT, Arial" style="isolation: isolate">Shell0</text>
      <text transform="translate(0.471 24.76)" font-size="3" fill="#787878" font-family="ArialMT, Arial" style="isolation: isolate">GND<tspan x="6.667" y="0" letter-spacing="-0.055em">A</tspan></text>
      <text transform="translate(0.471 17.725)" font-size="3" fill="#787878" font-family="ArialMT, Arial" style="isolation: isolate">VBus<tspan x="7.17" y="0" letter-spacing="-0.055em">A</tspan></text>
      <text transform="translate(0.471 3.109)" font-size="3" fill="#787878" font-family="ArialMT, Arial" style="isolation: isolate">GNDB</text>
      <text transform="translate(0.471 10.442)" font-size="3" fill="#787878" font-family="ArialMT, Arial" style="isolation: isolate">VBusB</text>
      <text transform="translate(0.654 31.909)" font-size="3" fill="#787878" font-family="ArialMT, Arial" style="isolation: isolate">CC1</text>
      <text transform="translate(0.654 39.192)" font-size="3" fill="#787878" font-family="ArialMT, Arial" style="isolation: isolate">CC2</text>
    </g>
    <g id="Name">
      <g id="g4768">
        <g id="g4770">
          <g id="g4772">
            <g id="g4774">
              <g id="g4776">
                <g id="g4778">
                  <g id="g4780">
                    <g id="g4782">
                      <g id="g4784">
                        <g id="g4786">
                          <text id="text4788" transform="translate(10.75 16.38)" font-size="4.252" font-family="ArialMT, Arial" style="isolation: isolate">USB</text>
                        </g>
                      </g>
                    </g>
                  </g>
                </g>
              </g>
            </g>
          </g>
        </g>
      </g>
    </g>
    <g id="Part">
      <g id="g4768-2" data-name="g4768">
        <g id="g4770-2" data-name="g4770">
          <g id="g4772-2" data-name="g4772">
            <g id="g4774-2" data-name="g4774">
              <g id="g4776-2" data-name="g4776">
                <g id="g4778-2" data-name="g4778">
                  <g id="g4780-2" data-name="g4780">
                    <g id="g4782-2" data-name="g4782">
                      <g id="g4784-2" data-name="g4784">
                        <g id="g4786-2" data-name="g4786">
                          <text id="text4788-2" data-name="text4788" transform="translate(10.75 19.912)" font-size="3" font-family="ArialMT, Arial" style="isolation: isolate">Name</text>
                        </g>
                      </g>
                    </g>
                  </g>
                </g>
              </g>
            </g>
          </g>
        </g>
      </g>
    </g>
  </g>
</svg>
